<?xml version="1.0" encoding="UTF-8" standalone="no"?>
<svg
   xmlns:dc="http://purl.org/dc/elements/1.1/"
   xmlns:cc="http://creativecommons.org/ns#"
   xmlns:rdf="http://www.w3.org/1999/02/22-rdf-syntax-ns#"
   xmlns:svg="http://www.w3.org/2000/svg"
   xmlns="http://www.w3.org/2000/svg"
   xmlns:xlink="http://www.w3.org/1999/xlink"
   id="svg8"
   version="1.1"
   viewBox="0 0 12.7 12.7"
   height="48"
   width="48">
  <defs
     id="defs2">
    <linearGradient
       id="linearGradient848">
      <stop
         id="stop844"
         offset="0"
         style="stop-color:#ff3131;stop-opacity:1" />
      <stop
         id="stop846"
         offset="1"
         style="stop-color:#603b88;stop-opacity:1" />
    </linearGradient>
    <linearGradient
       id="linearGradient821">
      <stop
         id="stop817"
         offset="0"
         style="stop-color:#313131;stop-opacity:1" />
      <stop
         id="stop819"
         offset="1"
         style="stop-color:#000000;stop-opacity:0.95686275" />
    </linearGradient>
    <linearGradient
       gradientTransform="matrix(0.97815004,0,0,0.97815003,0.1388505,6.3274818)"
       gradientUnits="userSpaceOnUse"
       y2="290.6689"
       x2="13.595803"
       y1="290.6689"
       x1="-0.88635415"
       id="linearGradient823"
       xlink:href="#linearGradient821" />
    <radialGradient
       gradientUnits="userSpaceOnUse"
       r="6.3452748"
       fy="290.64529"
       fx="6.3547242"
       cy="290.64529"
       cx="6.3547242"
       id="radialGradient850"
       xlink:href="#linearGradient848" />
  </defs>
  <metadata
     id="metadata5">
    <rdf:RDF>
      <cc:Work
         rdf:about="">
        <dc:format>image/svg+xml</dc:format>
        <dc:type
           rdf:resource="http://purl.org/dc/dcmitype/StillImage" />
        <dc:title></dc:title>
      </cc:Work>
    </rdf:RDF>
  </metadata>
  <g
     transform="translate(0,-284.29999)"
     id="layer1">
    <rect
       y="284.42941"
       x="0.13885051"
       height="12.431747"
       width="12.431747"
       id="rect815"
       style="opacity:1;fill:url(#radialGradient850);fill-opacity:1;stroke:url(#linearGradient823);stroke-width:0.25880218;stroke-linecap:round;stroke-linejoin:miter;stroke-miterlimit:4;stroke-dasharray:none;stroke-opacity:1;paint-order:normal" />
    <text
       transform="matrix(0.71995069,-0.68719221,0.62238184,0.79492118,0,0)"
       id="text911"
       y="215.34688"
       x="-183.99309"
       style="font-style:normal;font-variant:normal;font-weight:normal;font-stretch:normal;font-size:33.95203018px;line-height:8.8416748px;font-family:'Schumacher Clean';-inkscape-font-specification:'Schumacher Clean';letter-spacing:0px;word-spacing:0px;fill:#000000;fill-opacity:1;stroke:none;stroke-width:0.35366696px;stroke-linecap:butt;stroke-linejoin:miter;stroke-opacity:1"
       xml:space="preserve"><tspan
         style="font-style:normal;font-variant:normal;font-weight:normal;font-stretch:normal;font-size:4.71555948px;font-family:sans-serif;-inkscape-font-specification:sans-serif;stroke-width:0.35366696px"
         y="215.34688"
         x="-183.99309"
         id="tspan909">OUCH!</tspan></text>
  </g>
</svg>
