[gd_scene load_steps=2 format=2]

[ext_resource path="res://placeholder_tiles.tres" type="TileSet" id=1]

[node name="Node" type="Node" index="0"]

[node name="floor_walls" type="TileMap" parent="." index="0"]

mode = 0
tile_set = ExtResource( 1 )
cell_size = Vector2( 32, 32 )
cell_quadrant_size = 16
cell_custom_transform = Transform2D( 0, 0, 0, 0, 0, 0 )
cell_half_offset = 2
cell_tile_origin = 0
cell_y_sort = false
cell_clip_uv = false
collision_use_kinematic = false
collision_friction = 1.0
collision_bounce = 0.0
collision_layer = 1
collision_mask = 1
occluder_light_mask = 1
format = 1
tile_data = PoolIntArray( 0, 7, 0, 1, 7, 0, 2, 7, 0, 3, 7, 0, 4, 7, 0, 5, 5, 0, 6, 15, 0, 7, 7, 0, 8, 7, 0, 9, 7, 0, 10, 7, 0, 65536, 10, 0, 65537, 0, 0, 65538, 0, 0, 65539, 0, 0, 65540, 0, 0, 65541, 0, 0, 65542, 0, 0, 65543, 0, 0, 65544, 0, 0, 65545, 0, 0, 65546, 8, 0, 131072, 0, 0, 131073, 0, 0, 131074, 0, 0, 131075, 0, 0, 131076, 0, 0, 131077, 0, 0, 131078, 0, 0, 131079, 0, 0, 131080, 0, 0, 131081, 0, 0, 131082, 8, 0, 196608, 10, 0, 196609, 0, 0, 196610, 0, 0, 196611, 0, 0, 196612, 0, 0, 196613, 0, 0, 196614, 0, 0, 196615, 0, 0, 196616, 0, 0, 196617, 0, 0, 196618, 8, 0, 262144, 10, 0, 262145, 0, 0, 262146, 0, 0, 262147, 0, 0, 262148, 0, 0, 262149, 0, 0, 262150, 0, 0, 262151, 0, 0, 262152, 0, 0, 262153, 0, 0, 262154, 8, 0, 327680, 10, 0, 327681, 0, 0, 327682, 0, 0, 327683, 0, 0, 327684, 0, 0, 327685, 0, 0, 327686, 0, 0, 327687, 0, 0, 327688, 0, 0, 327689, 0, 0, 327690, 8, 0, 393216, 10, 0, 393217, 0, 0, 393218, 0, 0, 393219, 0, 0, 393220, 0, 0, 393221, 0, 0, 393222, 0, 0, 393223, 0, 0, 393224, 0, 0, 393225, 0, 0, 393226, 8, 0, 458752, 10, 0, 458753, 0, 0, 458754, 0, 0, 458755, 0, 0, 458756, 0, 0, 458757, 0, 0, 458758, 0, 0, 458759, 0, 0, 458760, 0, 0, 458761, 0, 0, 458762, 8, 0, 524288, 10, 0, 524289, 0, 0, 524290, 0, 0, 524291, 0, 0, 524292, 0, 0, 524293, 0, 0, 524294, 0, 0, 524295, 0, 0, 524296, 0, 0, 524297, 0, 0, 524298, 8, 0, 589824, 10, 0, 589825, 0, 0, 589826, 0, 0, 589827, 0, 0, 589828, 0, 0, 589829, 0, 0, 589830, 0, 0, 589831, 0, 0, 589832, 0, 0, 589833, 0, 0, 589834, 8, 0, 655360, 10, 0, 655361, 0, 0, 655362, 0, 0, 655363, 0, 0, 655364, 0, 0, 655365, 0, 0, 655366, 0, 0, 655367, 0, 0, 655368, 0, 0, 655369, 0, 0, 655370, 8, 0, 720896, 10, 0, 720897, 0, 0, 720898, 0, 0, 720899, 0, 0, 720900, 0, 0, 720901, 0, 0, 720902, 0, 0, 720903, 0, 0, 720904, 0, 0, 720905, 0, 0, 720906, 8, 0, 786432, 10, 0, 786433, 0, 0, 786434, 0, 0, 786435, 0, 0, 786436, 0, 0, 786437, 0, 0, 786438, 0, 0, 786439, 0, 0, 786440, 0, 0, 786441, 0, 0, 786442, 8, 0, 851968, 10, 0, 851969, 0, 0, 851970, 0, 0, 851971, 0, 0, 851972, 0, 0, 851973, 0, 0, 851974, 0, 0, 851975, 0, 0, 851976, 0, 0, 851977, 0, 0, 851978, 8, 0, 917504, 10, 0, 917505, 0, 0, 917506, 0, 0, 917507, 0, 0, 917508, 0, 0, 917509, 0, 0, 917510, 0, 0, 917511, 0, 0, 917512, 0, 0, 917513, 0, 0, 917514, 8, 0, 983040, 10, 0, 983041, 0, 0, 983042, 0, 0, 983043, 0, 0, 983044, 0, 0, 983045, 0, 0, 983046, 0, 0, 983047, 0, 0, 983048, 0, 0, 983049, 0, 0, 983050, 8, 0, 1048576, 10, 0, 1048577, 0, 0, 1048578, 0, 0, 1048579, 0, 0, 1048580, 0, 0, 1048581, 0, 0, 1048582, 0, 0, 1048583, 0, 0, 1048584, 0, 0, 1048585, 0, 0, 1048586, 8, 0, 1114112, 10, 0, 1114113, 0, 0, 1114114, 0, 0, 1114115, 0, 0, 1114116, 0, 0, 1114117, 0, 0, 1114118, 0, 0, 1114119, 0, 0, 1114120, 0, 0, 1114121, 0, 0, 1114122, 8, 0, 1179648, 10, 0, 1179649, 0, 0, 1179650, 0, 0, 1179651, 0, 0, 1179652, 0, 0, 1179653, 0, 0, 1179654, 0, 0, 1179655, 0, 0, 1179656, 0, 0, 1179657, 0, 0, 1179658, 8, 0, 1245184, 10, 0, 1245185, 0, 0, 1245186, 0, 0, 1245187, 0, 0, 1245188, 0, 0, 1245189, 0, 0, 1245190, 0, 0, 1245191, 0, 0, 1245192, 0, 0, 1245193, 0, 0, 1245194, 8, 0, 1310720, 10, 0, 1310721, 0, 0, 1310722, 0, 0, 1310723, 0, 0, 1310724, 0, 0, 1310725, 0, 0, 1310726, 0, 0, 1310727, 0, 0, 1310728, 0, 0, 1310729, 0, 0, 1310730, 8, 0, 1376256, 10, 0, 1376257, 9, 0, 1376258, 9, 0, 1376259, 9, 0, 1376260, 9, 0, 1376261, 9, 0, 1376262, 9, 0, 1376263, 9, 0, 1376264, 9, 0, 1376265, 9, 0, 1376266, 8, 0 )
_sections_unfolded = [ "Cell", "Visibility" ]
__meta__ = {
"_edit_group_": true
}

[node name="Furniture" type="TileMap" parent="floor_walls" index="0"]

mode = 0
tile_set = ExtResource( 1 )
cell_size = Vector2( 32, 32 )
cell_quadrant_size = 16
cell_custom_transform = Transform2D( 1, 0, 0, 1, 0, 0 )
cell_half_offset = 2
cell_tile_origin = 0
cell_y_sort = false
cell_clip_uv = false
collision_use_kinematic = false
collision_friction = 1.0
collision_bounce = 0.0
collision_layer = 1
collision_mask = 1
occluder_light_mask = 1
format = 1
tile_data = PoolIntArray( 131078, 12, 0, 131079, 11, 0, 262147, 2, 0, 262152, 2, 0, 327681, 3, 0, 327682, 18, 0, 327683, 17, 0, 327686, 3, 0, 327687, 18, 0, 327688, 17, 0, 393218, 13, 0, 393219, 16, 0, 393220, 6, 0, 393223, 13, 0, 393224, 16, 0, 393225, 6, 0, 458754, 1, 0, 458759, 1, 0, 655363, 2, 0, 655368, 2, 0, 720897, 3, 0, 720898, 18, 0, 720899, 17, 0, 720900, 6, 0, 720903, 18, 0, 720904, 17, 0, 786434, 13, 0, 786435, 16, 0, 786438, 3, 0, 786439, 13, 0, 786440, 16, 0, 851971, 1, 0, 851975, 1, 0, 851976, 1, 0, 1048584, 2, 0, 1114114, 18, 0, 1114115, 17, 0, 1114118, 4, 0, 1114119, 18, 0, 1114120, 17, 0, 1179649, 4, 0, 1179650, 13, 0, 1179651, 16, 0, 1179655, 13, 0, 1179656, 16, 0, 1245186, 1, 0, 1245192, 1, 0 )
_sections_unfolded = [ "Cell", "Collision" ]

[node name="items" type="TileMap" parent="floor_walls/Furniture" index="0"]

mode = 0
tile_set = ExtResource( 1 )
cell_size = Vector2( 32, 32 )
cell_quadrant_size = 16
cell_custom_transform = Transform2D( 1, 0, 0, 1, 0, 0 )
cell_half_offset = 2
cell_tile_origin = 0
cell_y_sort = false
cell_clip_uv = false
collision_use_kinematic = false
collision_friction = 1.0
collision_bounce = 0.0
collision_layer = 1
collision_mask = 1
occluder_light_mask = 1
format = 1
tile_data = PoolIntArray( 262147, 24, 0, 262152, 24, 0, 327681, 25, 0, 327682, 23, 0, 327686, 26, 0, 327688, 22, 0, 393218, 22, 0, 393220, 26, 0, 393223, 23, 0, 393225, 26, 0, 458754, 24, 0, 458759, 25, 0 )
_sections_unfolded = [ "Cell", "Collision", "Occluder", "Visibility" ]

[node name="Camera2D" type="Camera2D" parent="." index="1"]

position = Vector2( 180, 110 )
scale = Vector2( 3.375, 2.6875 )
anchor_mode = 1
rotating = false
current = true
zoom = Vector2( 0.35, 0.35 )
limit_left = -10000000
limit_top = -10000000
limit_right = 10000000
limit_bottom = 10000000
limit_smoothed = false
drag_margin_h_enabled = true
drag_margin_v_enabled = true
smoothing_enabled = false
smoothing_speed = 5.0
offset_v = 0.0
offset_h = 0.0
drag_margin_left = 0.2
drag_margin_top = 0.2
drag_margin_right = 0.2
drag_margin_bottom = 0.2
editor_draw_screen = true
editor_draw_limits = false
editor_draw_drag_margin = false
_sections_unfolded = [ "Drag Margin", "Editor", "Limit", "Material", "Offset", "Pause", "Smoothing", "Transform", "Visibility", "Z Index" ]


